{
    "Data":[
        {
            "IATACode": "319",
            "ICAOCode": "A319",
            "Description": "Airbus A319"
        },
        {
            "IATACode": "32D",
            "ICAOCode": "A319",
            "Description": "Airbus A319 (sharklets)"
        },
        {
            "IATACode": "320",
            "ICAOCode": "A320",
            "Description": "Airbus A320"
        },
        {
            "IATACode": "32A",
            "ICAOCode": "A320",
            "Description": "Airbus A320 (sharklets)"
        },
        {
            "IATACode": "321",
            "ICAOCode": "A321",
            "Description": "Airbus A321"
        },
        {
            "IATACode": "32B",
            "ICAOCode": "A321",
            "Description": "Airbus A321 (sharklets)"
        },
        {
            "IATACode": "388",
            "ICAOCode": "A388",
            "Description": "Airbus A380-800"
        },
        {
            "IATACode": "359",
            "ICAOCode": "A359",
            "Description": "Airbus A350-900"
        },
        {
            "IATACode": "351",
            "ICAOCode": "A3K9",
            "Description": "Airbus A350-1000"
        },
        {
            "IATACode": "789",
            "ICAOCode": "B789",
            "Description": "Boeing 787-9"
        },
        {
            "IATACode": "781",
            "ICAOCode": "B78X",
            "Description": "Boeing 787-10"
        },
        {
            "IATACode": "77W",
            "ICAOCode": "B77W",
            "Description": "Boeing 777-300ER"
        }
    ]
}